{
  "_class": "symbolInstance",
  "do_objectID": "AE7EDF34-8686-4ACD-A958-9F83545C5D05",
  "exportOptions": {
    "_class": "exportOptions",
    "exportFormats": [
    ],
    "includedLayerIds": [
    ],
    "layerOptions": 0,
    "shouldTrim": false
  },
  "frame": {
    "_class": "rect",
    "constrainProportions": false,
    "height": 40,
    "width": 220,
    "x": 0,
    "y": 64
  },
  "horizontalSpacing": 0,
  "isFlippedHorizontal": false,
  "isFlippedVertical": false,
  "isLocked": false,
  "isVisible": true,
  "layerListExpandedType": 0,
  "masterInfluenceEdgeMaxXPadding": 1,
  "masterInfluenceEdgeMaxYPadding": 1,
  "masterInfluenceEdgeMinXPadding": 0,
  "masterInfluenceEdgeMinYPadding": 0,
  "name": "sidebar/molecules/menu-item/",
  "nameIsFixed": true,
  "overrides": {
    "15654E37-957C-42B5-8981-C4F1B5B12658": {
      "00D2065D-872B-4B32-AD96-1F030A1938C6": {
        "symbolID": "5A49560B-8379-495D-95CB-DDEB53CA71BE"
      },
      "1134423B-DEFE-45B6-9301-C06B343FDAF1": {
        "symbolID": "EAB165A5-6100-4D37-9D0B-ED03DA773770"
      },
      "551F4ED4-706C-428C-8D31-20609CAAA5AA": {
        "symbolID": "82060AFB-5C5F-4178-A8BD-C12F1F115034"
      },
      "C2AB43F0-E3FE-4FCD-97BF-8563152B84C2": {
        "symbolID": "5A49560B-8379-495D-95CB-DDEB53CA71BE"
      },
      "symbolID": "F1944C00-5507-43A1-86EB-6AB7660FCDE6"
    },
    "69B9D507-A5EB-45D9-81F5-4C6E1AAB425A": {
      "253EB82C-94C8-439C-A608-F129071194AD": {
        "symbolID": ""
      },
      "7B3078E7-F805-4EE8-8848-5FA084C6A7B7": "Project",
      "9505DB84-2594-410F-BAC6-F8A173ACEADD": {
        "symbolID": ""
      },
      "A2A022FF-7C80-411C-8C24-E06CA8249433": "Overview",
      "B2492B1E-B47B-47FE-B174-5C892C637E8B": "Overview",
      "FB150F4B-17F2-4F09-96C6-AEDDAD8D8DFC": {
        "symbolID": ""
      },
      "symbolID": "6BE6638E-FB17-4F24-AF5E-C66C7397C86C"
    }
  },
  "resizingConstraint": 63,
  "resizingType": 0,
  "rotation": 0,
  "shouldBreakMaskChain": false,
  "style": {
    "_class": "style",
    "endDecorationType": 0,
    "miterLimit": 10,
    "startDecorationType": 0
  },
  "symbolID": "42FC1E5F-60CA-4B2C-8A9E-AC9131844DB4",
  "verticalSpacing": 0
}