{
  "_class": "group",
  "do_objectID": "477B01B9-C714-4DE0-9FEA-CB640FD4F37D",
  "exportOptions": {
    "_class": "exportOptions",
    "exportFormats": [
    ],
    "includedLayerIds": [
    ],
    "layerOptions": 0,
    "shouldTrim": false
  },
  "frame": {
    "_class": "rect",
    "constrainProportions": false,
    "height": 40,
    "width": 220,
    "x": 0,
    "y": 0
  },
  "hasClickThrough": false,
  "isFlippedHorizontal": false,
  "isFlippedVertical": false,
  "isLocked": false,
  "isVisible": true,
  "layerListExpandedType": 0,
  "layers": [
    {
      "class": "shapeGroup",
      "id": "06A5F5B0-497C-468E-A813-A7C95E8512AC"
    },
    {
      "class": "text",
      "id": "06333DC2-1E14-4785-8F2A-3F9DD4587FBA"
    },
    {
      "class": "group",
      "id": "3CCD99DC-1E15-4B67-AA3C-CAC099572E17"
    }
  ],
  "name": "💡tab",
  "nameIsFixed": false,
  "resizingConstraint": 63,
  "resizingType": 0,
  "rotation": 0,
  "shouldBreakMaskChain": false,
  "style": {
    "_class": "style",
    "endDecorationType": 0,
    "miterLimit": 10,
    "startDecorationType": 0
  }
}