{
  "_class": "shapePath",
  "booleanOperation": -1,
  "do_objectID": "22919331-D9AD-410C-82C8-F7559FC7CBA9",
  "edited": true,
  "exportOptions": {
    "_class": "exportOptions",
    "exportFormats": [
    ],
    "includedLayerIds": [
    ],
    "layerOptions": 0,
    "shouldTrim": false
  },
  "frame": {
    "_class": "rect",
    "constrainProportions": false,
    "height": 14.59029053420808,
    "width": 12.78399968211953,
    "x": 0,
    "y": -1.77635683940025e-15
  },
  "isFlippedHorizontal": false,
  "isFlippedVertical": false,
  "isLocked": false,
  "isVisible": true,
  "layerListExpandedType": 0,
  "name": "Fill-12-path",
  "nameIsFixed": false,
  "path": {
    "_class": "path",
    "isClosed": true,
    "pointRadiusBehaviour": 0,
    "points": [
      {
        "_class": "curvePoint",
        "cornerRadius": 0,
        "curveFrom": "{0.11564344870266856, 0}",
        "curveMode": 1,
        "curveTo": "{0.11564344870266856, 0}",
        "hasCurveFrom": false,
        "hasCurveTo": false,
        "point": "{0.11564344870266856, 0}"
      },
      {
        "_class": "curvePoint",
        "cornerRadius": 0,
        "curveFrom": "{0.11564344870266856, 0}",
        "curveMode": 1,
        "curveTo": "{0.11564344870266856, 0}",
        "hasCurveFrom": false,
        "hasCurveTo": false,
        "point": "{0.11564344870266856, 0}"
      },
      {
        "_class": "curvePoint",
        "cornerRadius": 0,
        "curveFrom": "{-0.006469862557584991, 0.33160669688280453}",
        "curveMode": 4,
        "curveTo": "{0.0037372205891980847, 0.30389081827431652}",
        "hasCurveFrom": true,
        "hasCurveTo": false,
        "point": "{0.0037372205891980847, 0.30389081827431652}"
      },
      {
        "_class": "curvePoint",
        "cornerRadius": 0,
        "curveFrom": "{0.03143263013593163, 0.37910041119734944}",
        "curveMode": 4,
        "curveTo": "{0.004709323746034568, 0.36197139277335377}",
        "hasCurveFrom": false,
        "hasCurveTo": true,
        "point": "{0.03143263013593163, 0.37910041119734944}"
      },
      {
        "_class": "curvePoint",
        "cornerRadius": 0,
        "curveFrom": "{1, 1}",
        "curveMode": 1,
        "curveTo": "{1, 1}",
        "hasCurveFrom": false,
        "hasCurveTo": false,
        "point": "{1, 1}"
      },
      {
        "_class": "curvePoint",
        "cornerRadius": 0,
        "curveFrom": "{0.11564344870266856, 0}",
        "curveMode": 1,
        "curveTo": "{0.11564344870266856, 0}",
        "hasCurveFrom": false,
        "hasCurveTo": false,
        "point": "{0.11564344870266856, 0}"
      }
    ]
  },
  "resizingConstraint": 63,
  "resizingType": 0,
  "rotation": 0,
  "shouldBreakMaskChain": false
}