{
  "_class": "group",
  "do_objectID": "5E24EAF1-6229-47A3-9C6A-9574CA1067A2",
  "exportOptions": {
    "_class": "exportOptions",
    "exportFormats": [
    ],
    "includedLayerIds": [
    ],
    "layerOptions": 0,
    "shouldTrim": false
  },
  "frame": {
    "_class": "rect",
    "constrainProportions": false,
    "height": 28,
    "width": 96,
    "x": 0.5,
    "y": 0
  },
  "hasClickThrough": false,
  "isFlippedHorizontal": false,
  "isFlippedVertical": false,
  "isLocked": false,
  "isVisible": true,
  "layerListExpandedType": 0,
  "layers": [
    {
      "class": "shapeGroup",
      "id": "749EE59E-EED9-43E7-A5A6-70CA8649D929"
    },
    {
      "class": "shapeGroup",
      "id": "12E4C1DB-DE5F-4A4E-9CBC-DF6F65FB72F6"
    },
    {
      "class": "text",
      "id": "D428DA0A-A229-4396-AEBD-A3FF57BEF2A7"
    }
  ],
  "name": "global-components/tooltips/top",
  "nameIsFixed": false,
  "resizingConstraint": 63,
  "resizingType": 0,
  "rotation": 0,
  "shouldBreakMaskChain": false,
  "style": {
    "_class": "style",
    "endDecorationType": 0,
    "miterLimit": 10,
    "startDecorationType": 0
  }
}