{
  "_class": "group",
  "do_objectID": "87DF88A4-5E5B-456B-BFE8-AB1FDE5E0793",
  "exportOptions": {
    "_class": "exportOptions",
    "exportFormats": [
    ],
    "includedLayerIds": [
    ],
    "layerOptions": 0,
    "shouldTrim": false
  },
  "frame": {
    "_class": "rect",
    "constrainProportions": false,
    "height": 40,
    "width": 220,
    "x": 0,
    "y": 0
  },
  "hasClickThrough": false,
  "isFlippedHorizontal": false,
  "isFlippedVertical": false,
  "isLocked": false,
  "isVisible": true,
  "layerListExpandedType": 0,
  "layers": [
    {
      "class": "shapeGroup",
      "id": "92281711-1193-499C-948B-EC1F2F53FE68"
    },
    {
      "class": "text",
      "id": "3B084DBB-9B00-4446-9609-50296457C899"
    },
    {
      "class": "group",
      "id": "7FF88DA6-70B7-4BEC-8BC2-75AD4E0026D9"
    }
  ],
  "name": "💡tab",
  "nameIsFixed": false,
  "resizingConstraint": 63,
  "resizingType": 0,
  "rotation": 0,
  "shouldBreakMaskChain": false,
  "style": {
    "_class": "style",
    "endDecorationType": 0,
    "miterLimit": 10,
    "startDecorationType": 0
  }
}