<?xml version="1.0" encoding="UTF-8"?>
<svg width="16px" height="16px" viewBox="0 0 16 16" version="1.1" xmlns="http://www.w3.org/2000/svg" xmlns:xlink="http://www.w3.org/1999/xlink">
    <!-- Generator: Sketch 64 (93537) - https://sketch.com -->
    <title>icn/folder</title>
    <desc>Created with Sketch.</desc>
    <g id="icn/folder" stroke="none" stroke-width="1" fill="none" fill-rule="evenodd">
        <path d="M1,12 L1,4 C1,2.89543 1.89543,2 3,2 L6.58579,2 C6.851,2 7.10536,2.10536 7.29289,2.29289 L9,4 L13,4 C14.1046,4 15,4.89543 15,6 L15,12 C15,13.1046 14.1046,14 13,14 L3,14 C1.89543,14 1,13.1046 1,12 Z M13,6 L3,6 L3,8 L13,8 L13,6 Z" id="icon" fill="#000000"></path>
    </g>
</svg>