{
  "_class": "shapeGroup",
  "clippingMaskMode": 0,
  "do_objectID": "D279093F-35E3-4771-B395-74E01DD30E66",
  "exportOptions": {
    "_class": "exportOptions",
    "exportFormats": [
    ],
    "includedLayerIds": [
    ],
    "layerOptions": 0,
    "shouldTrim": false
  },
  "frame": {
    "_class": "rect",
    "constrainProportions": true,
    "height": 16,
    "width": 14,
    "x": 1.000000000000008,
    "y": 7.105427357601005e-15
  },
  "hasClickThrough": false,
  "hasClippingMask": true,
  "isFlippedHorizontal": false,
  "isFlippedVertical": false,
  "isLocked": false,
  "isVisible": true,
  "layerListExpandedType": 1,
  "layers": [
    {
      "class": "shapePath",
      "id": "A0DE0663-825C-4DCF-AF07-A444A9B6D000"
    },
    {
      "class": "shapePath",
      "id": "48501361-E026-4329-B327-99EB526AC247"
    },
    {
      "class": "shapePath",
      "id": "FC05D348-72CE-457D-9449-22D91E984F8F"
    },
    {
      "class": "shapePath",
      "id": "1C2A70C7-321E-4B8D-A2C3-E9644E88FE63"
    },
    {
      "class": "shapePath",
      "id": "5453AD4B-1C65-4B36-B103-D3BDF79479B8"
    }
  ],
  "name": "Shape",
  "nameIsFixed": false,
  "resizingConstraint": 63,
  "resizingType": 0,
  "rotation": 0,
  "shouldBreakMaskChain": false,
  "style": {
    "_class": "style",
    "endDecorationType": 0,
    "fills": [
      {
        "_class": "fill",
        "color": {
          "_class": "color",
          "alpha": 1,
          "blue": 0,
          "green": 0,
          "red": 0
        },
        "fillType": 0,
        "isEnabled": true,
        "noiseIndex": 0,
        "noiseIntensity": 0,
        "patternFillType": 1,
        "patternTileScale": 1
      }
    ],
    "miterLimit": 10,
    "startDecorationType": 0
  },
  "windingRule": 0
}