{
  "_class": "shapePath",
  "booleanOperation": -1,
  "do_objectID": "4596D73C-5778-4DD5-824D-6B5ECBF0C3C5",
  "edited": true,
  "exportOptions": {
    "_class": "exportOptions",
    "exportFormats": [
    ],
    "includedLayerIds": [
    ],
    "layerOptions": 0,
    "shouldTrim": false
  },
  "frame": {
    "_class": "rect",
    "constrainProportions": false,
    "height": 2.218589969867366,
    "width": 2.218589969867364,
    "x": 4.851305269110693,
    "y": 4.503310004450181
  },
  "isFlippedHorizontal": false,
  "isFlippedVertical": false,
  "isLocked": false,
  "isVisible": true,
  "layerListExpandedType": 0,
  "name": "Path",
  "nameIsFixed": false,
  "path": {
    "_class": "path",
    "isClosed": true,
    "pointRadiusBehaviour": 1,
    "points": [
      {
        "_class": "curvePoint",
        "cornerRadius": 0,
        "curveFrom": "{0.34170875526888933, -0.048815536466984021}",
        "curveMode": 2,
        "curveTo": "{-0.048815536466984062, 0.34170875526888905}",
        "hasCurveFrom": true,
        "hasCurveTo": true,
        "point": "{0.14644660940095219, 0.1464466094009525}"
      },
      {
        "_class": "curvePoint",
        "cornerRadius": 0,
        "curveFrom": "{1.048815536466984, 0.34170875526888905}",
        "curveMode": 2,
        "curveTo": "{0.65829124473111067, -0.048815536466984021}",
        "hasCurveFrom": true,
        "hasCurveTo": true,
        "point": "{0.85355339059904778, 0.14644660940095294}"
      },
      {
        "_class": "curvePoint",
        "cornerRadius": 0,
        "curveFrom": "{0.65829124473111067, 1.048815536466984}",
        "curveMode": 2,
        "curveTo": "{1.048815536466984, 0.658291244731111}",
        "hasCurveFrom": true,
        "hasCurveTo": true,
        "point": "{0.85355339059904778, 0.85355339059904745}"
      },
      {
        "_class": "curvePoint",
        "cornerRadius": 0,
        "curveFrom": "{-0.048815536466984062, 0.658291244731111}",
        "curveMode": 2,
        "curveTo": "{0.34170875526888844, 1.048815536466984}",
        "hasCurveFrom": true,
        "hasCurveTo": true,
        "point": "{0.14644660940095219, 0.85355339059904745}"
      }
    ]
  },
  "resizingConstraint": 63,
  "resizingType": 0,
  "rotation": 0,
  "shouldBreakMaskChain": false
}