{
  "_class": "group",
  "do_objectID": "44DBBA03-63A1-4658-B626-4659ECA68C1D",
  "exportOptions": {
    "_class": "exportOptions",
    "exportFormats": [
    ],
    "includedLayerIds": [
    ],
    "layerOptions": 0,
    "shouldTrim": false
  },
  "frame": {
    "_class": "rect",
    "constrainProportions": false,
    "height": 32,
    "width": 624,
    "x": 1,
    "y": 286
  },
  "hasClickThrough": false,
  "isFlippedHorizontal": false,
  "isFlippedVertical": false,
  "isLocked": false,
  "isVisible": true,
  "layerListExpandedType": 2,
  "layers": [
    {
      "class": "shapeGroup",
      "id": "88A23EDC-7D7D-4FEA-93A8-FE6FF63EE906"
    },
    {
      "class": "shapeGroup",
      "id": "568500C2-2583-4D2B-A73D-1CB14E752C0B"
    },
    {
      "class": "shapeGroup",
      "id": "6EF9730C-D056-4C87-8CCB-6D426081D321"
    },
    {
      "class": "text",
      "id": "9D05ED13-1D97-4E9E-AD36-577813C35197"
    }
  ],
  "name": "epic copy 2",
  "nameIsFixed": true,
  "resizingConstraint": 63,
  "resizingType": 0,
  "rotation": 0,
  "shouldBreakMaskChain": false,
  "style": {
    "_class": "style",
    "endDecorationType": 0,
    "miterLimit": 10,
    "startDecorationType": 0
  }
}