<?xml version="1.0" encoding="UTF-8"?>
<svg width="16px" height="16px" viewBox="0 0 16 16" version="1.1" xmlns="http://www.w3.org/2000/svg" xmlns:xlink="http://www.w3.org/1999/xlink">
    <!-- Generator: Sketch 64 (93537) - https://sketch.com -->
    <title>icn/arrow-down</title>
    <desc>Created with Sketch.</desc>
    <g id="icn/arrow-down" stroke="none" stroke-width="1" fill="none" fill-rule="evenodd">
        <path d="M11.707085,11.7071 L7.999975,15.4142 L4.292875,11.7071 C3.902375,11.3166 3.902375,10.6834 4.292875,10.2929 C4.683375,9.90237 5.316575,9.90237 5.707075,10.2929 L6.999975,11.5858 L6.999975,2 C6.999975,1.44771 7.447695,1 7.999975,1 C8.552255,1 8.999975,1.44771 8.999975,2 L8.999975,11.5858 L10.292865,10.2929 C10.683395,9.90237 11.316555,9.90237 11.707085,10.2929 C12.097605,10.6834 12.097605,11.3166 11.707085,11.7071 Z" id="icon" fill="#000000"></path>
    </g>
</svg>