<?xml version="1.0" encoding="UTF-8"?>
<svg width="16px" height="16px" viewBox="0 0 16 16" version="1.1" xmlns="http://www.w3.org/2000/svg" xmlns:xlink="http://www.w3.org/1999/xlink">
    <!-- Generator: Sketch 63.1 (92452) - https://sketch.com -->
    <title>icn/chevron-up</title>
    <desc>Created with Sketch.</desc>
    <g id="icn/chevron-up" stroke="none" stroke-width="1" fill="none" fill-rule="evenodd">
        <path d="M7.29289,5.29289 C7.68342,4.90237 8.31658,4.90237 8.70711,5.29289 L11.7071,8.29289 C12.0976,8.68342 12.0976,9.31658 11.7071,9.70711 C11.3166,10.0976 10.6834,10.0976 10.2929,9.70711 L8,7.41421 L5.70711,9.70711 C5.31658,10.0976 4.68342,10.0976 4.29289,9.70711 C3.90237,9.31658 3.90237,8.68342 4.29289,8.29289 L7.29289,5.29289 Z" id="icon" fill="#000000"></path>
    </g>
</svg>