{
  "_class": "group",
  "do_objectID": "AC73E1CF-A428-4353-83B9-10F702EE4AC2",
  "exportOptions": {
    "_class": "exportOptions",
    "exportFormats": [
    ],
    "includedLayerIds": [
    ],
    "layerOptions": 0,
    "shouldTrim": false
  },
  "frame": {
    "_class": "rect",
    "constrainProportions": false,
    "height": 1610,
    "width": 9,
    "x": 1130,
    "y": 149
  },
  "hasClickThrough": false,
  "isFlippedHorizontal": false,
  "isFlippedVertical": false,
  "isLocked": false,
  "isVisible": true,
  "layerListExpandedType": 0,
  "layers": [
    {
      "class": "shapeGroup",
      "id": "F76FFAED-E5C6-45F8-9F51-9C9C9A45F1BB"
    },
    {
      "class": "shapeGroup",
      "id": "5C382A83-BF36-4AB2-9193-D1367352F47C"
    }
  ],
  "name": "Today",
  "nameIsFixed": true,
  "resizingConstraint": 63,
  "resizingType": 0,
  "rotation": 0,
  "shouldBreakMaskChain": false,
  "style": {
    "_class": "style",
    "endDecorationType": 0,
    "miterLimit": 10,
    "startDecorationType": 0
  }
}