{
  "_class": "group",
  "do_objectID": "099BA5BF-9CF3-4A06-9855-7BB5716C8341",
  "exportOptions": {
    "_class": "exportOptions",
    "exportFormats": [
    ],
    "includedLayerIds": [
    ],
    "layerOptions": 0,
    "shouldTrim": false
  },
  "frame": {
    "_class": "rect",
    "constrainProportions": false,
    "height": 588,
    "width": 97,
    "x": 462,
    "y": 120
  },
  "hasClickThrough": false,
  "isFlippedHorizontal": false,
  "isFlippedVertical": false,
  "isLocked": false,
  "isVisible": true,
  "layerListExpandedType": 1,
  "layers": [
    {
      "class": "shapeGroup",
      "id": "212A4942-7507-4088-9527-86993EA5EE9C"
    },
    {
      "class": "shapeGroup",
      "id": "5EAB2C70-8889-4ADE-8E32-13F171A6D3EB"
    },
    {
      "class": "shapeGroup",
      "id": "49651366-AA55-453D-A8CD-38EE4BF50E99"
    },
    {
      "class": "shapeGroup",
      "id": "2870D183-779E-44D9-97E6-7B4AC30D1C01"
    },
    {
      "class": "group",
      "id": "409B70D1-DBF2-407B-B8B7-C0EBFBABBC81"
    }
  ],
  "name": "milestone copy",
  "nameIsFixed": true,
  "resizingConstraint": 63,
  "resizingType": 0,
  "rotation": 0,
  "shouldBreakMaskChain": false,
  "style": {
    "_class": "style",
    "endDecorationType": 0,
    "miterLimit": 10,
    "startDecorationType": 0
  }
}